{
  "variants": {
    "connected_left=false,connected_right=false,facing=south": { "model": "bazaar:block/flag_single", "y":   0 },
    "connected_left=false,connected_right=false,facing=west":  { "model": "bazaar:block/flag_single", "y":  90 },
    "connected_left=false,connected_right=false,facing=north": { "model": "bazaar:block/flag_single", "y": 180 },
    "connected_left=false,connected_right=false,facing=east":  { "model": "bazaar:block/flag_single", "y": 270 },

    "connected_left=false,connected_right=true,facing=south": { "model": "bazaar:block/flag_left", "y":   0 },
    "connected_left=false,connected_right=true,facing=west":  { "model": "bazaar:block/flag_left", "y":  90 },
    "connected_left=false,connected_right=true,facing=north": { "model": "bazaar:block/flag_left", "y": 180 },
    "connected_left=false,connected_right=true,facing=east":  { "model": "bazaar:block/flag_left", "y": 270 },

    "connected_left=true,connected_right=false,facing=south": { "model": "bazaar:block/flag_right", "y":   0 },
    "connected_left=true,connected_right=false,facing=west":  { "model": "bazaar:block/flag_right", "y":  90 },
    "connected_left=true,connected_right=false,facing=north": { "model": "bazaar:block/flag_right", "y": 180 },
    "connected_left=true,connected_right=false,facing=east":  { "model": "bazaar:block/flag_right", "y": 270 },

    "connected_left=true,connected_right=true,facing=south": { "model": "bazaar:block/flag_mid", "y":   0 },
    "connected_left=true,connected_right=true,facing=west":  { "model": "bazaar:block/flag_mid", "y":  90 },
    "connected_left=true,connected_right=true,facing=north": { "model": "bazaar:block/flag_mid", "y": 180 },
    "connected_left=true,connected_right=true,facing=east":  { "model": "bazaar:block/flag_mid", "y": 270 }
  }
}