{
	"credit": "Made with Blockbench",
	"textures": {
		"2": "bazaar:block/flag/flag_double",
		"particle": "bazaar:block/flag/flag_double"
	},
	"elements": [
		{
			"name": "cloth",
			"from": [0, -16, 0.5],
			"to": [16, 14, 0.6],
			"faces": {
				"north": {"uv": [8, 1, 16, 16], "texture": "#2", "tintindex": 0},
				"east": {"uv": [0, 15.5, 0.5, 16], "texture": "#2", "tintindex": 0},
				"south": {"uv": [0, 1, 8, 16], "texture": "#2", "tintindex": 0},
				"west": {"uv": [0, 15.5, 0.5, 16], "texture": "#2", "tintindex": 0},
				"up": {"uv": [0, 15.5, 0.5, 16], "texture": "#2", "tintindex": 0},
				"down": {"uv": [0, 15.5, 0.5, 16], "texture": "#2", "tintindex": 0}
			}
		},
		{
			"name": "wood-l",
			"from": [0, 14, 0],
			"to": [2, 16, 1],
			"faces": {
				"north": {"uv": [8, 0, 9, 1], "texture": "#2"},
				"east": {"uv": [13, 0, 13.5, 1], "texture": "#2"},
				"south": {"uv": [2, 0, 3, 1], "texture": "#2"},
				"west": {"uv": [6, 0, 6.5, 1], "texture": "#2"},
				"up": {"uv": [11, 0.5, 12, 1], "texture": "#2"},
				"down": {"uv": [3.5, 0, 4.5, 0.5], "texture": "#2"}
			}
		}
	]
}