{
	"format_version": "1.12.0",
	"minecraft:geometry": [
		{
			"description": {
				"identifier": "geometry.unknown",
				"texture_width": 144,
				"texture_height": 144,
				"visible_bounds_width": 5,
				"visible_bounds_height": 3.5,
				"visible_bounds_offset": [0, 1.25, 0]
			},
			"bones": [
				{
					"name": "body",
					"pivot": [0, 0, 0]
				},
				{
					"name": "main_body",
					"parent": "body",
					"pivot": [0, 0, -6],
					"cubes": [
						{"origin": [-6, 0, -14], "size": [12, 19, 24], "uv": [0, 0]},
						{"origin": [-1, 19, -13], "size": [2, 2, 5], "uv": [15, 115]},
						{"origin": [-1, 19, 3], "size": [2, 2, 5], "uv": [83, 105]}
					]
				},
				{
					"name": "tail",
					"parent": "main_body",
					"pivot": [0, 7, 10],
					"cubes": [
						{"origin": [-4, 0.1, 9], "size": [8, 14, 9], "uv": [55, 44]},
						{"origin": [-1, 14.1, 12], "size": [2, 2, 5], "uv": [68, 105]}
					]
				},
				{
					"name": "extra_tail",
					"parent": "tail",
					"pivot": [0, 7, 18],
					"cubes": [
						{"origin": [0, 0.1, 18], "size": [0, 14, 9], "uv": [27, 81]}
					]
				},
				{
					"name": "legs",
					"parent": "body",
					"pivot": [6, 6, 5]
				},
				{
					"name": "bone9",
					"parent": "legs",
					"pivot": [6, 6, 5],
					"rotation": [0, -22.5, 0],
					"cubes": [
						{"origin": [2, 0.1, 2], "size": [16, 6, 6], "uv": [90, 44]}
					]
				},
				{
					"name": "bone8",
					"parent": "legs",
					"pivot": [-6, 6, 5],
					"rotation": [0, 22.5, 0],
					"cubes": [
						{"origin": [-18, 0.1, 2], "size": [16, 6, 6], "uv": [0, 68]}
					]
				},
				{
					"name": "bone7",
					"parent": "legs",
					"pivot": [-6, 6, -10],
					"rotation": [0, -22.5, 0],
					"cubes": [
						{"origin": [-18, 0.1, -13], "size": [16, 6, 6], "uv": [90, 68]}
					]
				},
				{
					"name": "bone6",
					"parent": "legs",
					"pivot": [6, 6, -10],
					"rotation": [0, 22.5, 0],
					"cubes": [
						{"origin": [2, 0.1, -13], "size": [16, 6, 6], "uv": [45, 68]}
					]
				},
				{
					"name": "head",
					"parent": "body",
					"pivot": [0, 8, -14]
				},
				{
					"name": "main_head",
					"parent": "head",
					"pivot": [0, 0, -14],
					"cubes": [
						{"origin": [-6.075, 3, -30], "size": [12.1, 13, 16], "uv": [73, 0]},
						{"origin": [-2, 16, -25], "size": [4, 9, 9], "uv": [0, 81]}
					]
				},
				{
					"name": "eyes",
					"parent": "main_head",
					"pivot": [0, 7, -22]
				},
				{
					"name": "bone5",
					"parent": "eyes",
					"pivot": [0, 7, -22],
					"cubes": [
						{"origin": [6, 4, -25], "size": [2, 6, 6], "uv": [46, 81], "mirror": true},
						{"origin": [-8, 4, -25], "size": [2, 6, 6], "uv": [46, 81]}
					]
				},
				{
					"name": "bone4",
					"parent": "eyes",
					"pivot": [0, 4, -22],
					"cubes": [
						{"origin": [5.975, 3.975, -25.025], "size": [2.05, 3.05, 6.05], "uv": [0, 105], "mirror": true},
						{"origin": [-8.025, 3.975, -25.025], "size": [2.05, 3.05, 6.05], "uv": [0, 105]}
					]
				},
				{
					"name": "bone2",
					"parent": "eyes",
					"pivot": [0, 10, -22],
					"cubes": [
						{"origin": [5.975, 6.975, -25.025], "size": [2.05, 3.05, 6.05], "uv": [51, 105], "mirror": true},
						{"origin": [-8.025, 6.975, -25.025], "size": [2.05, 3.05, 6.05], "uv": [51, 105]}
					]
				},
				{
					"name": "bone3",
					"parent": "main_head",
					"pivot": [0, 3, -17],
					"cubes": [
						{"origin": [-6, 0, -30], "size": [11.9, 3, 16], "inflate": 0.01, "uv": [0, 44]}
					]
				},
				{
					"name": "tounge",
					"parent": "head",
					"pivot": [0, 3.026, -13.975],
					"cubes": [
						{"origin": [-2, 3.025, -29.975], "size": [4, 0, 16], "uv": [47, 81]}
					]
				}
			]
		}
	]
}