{
	"format_version": "1.12.0",
	"minecraft:geometry": [
		{
			"description": {
				"identifier": "geometry.unknown",
				"texture_width": 224,
				"texture_height": 224,
				"visible_bounds_width": 5,
				"visible_bounds_height": 4.5,
				"visible_bounds_offset": [0, 1.75, 0]
			},
			"bones": [
				{
					"name": "centre",
					"pivot": [0, 26, 0]
				},
				{
					"name": "rotation",
					"parent": "centre",
					"pivot": [0, 0, 0]
				},
				{
					"name": "body",
					"parent": "rotation",
					"pivot": [0, 6, 0]
				},
				{
					"name": "head",
					"parent": "body",
					"pivot": [0, 0, 0],
					"cubes": [
						{"origin": [-21, 6, -21], "size": [42, 42, 42], "uv": [0, 0]},
						{"origin": [-15, 32, -15], "size": [30, 16, 30], "uv": [28, 123]},
						{"origin": [-15, 32, -15], "size": [30, 0, 30], "uv": [96, 0]}
					]
				},
				{
					"name": "bone",
					"parent": "head",
					"pivot": [0, 12, -21],
					"cubes": [
						{"origin": [-2, 5, -25], "size": [4, 7, 4], "uv": [41, 112]}
					]
				},
				{
					"name": "bone3",
					"parent": "body",
					"pivot": [21, 41, 0]
				},
				{
					"name": "bone2",
					"parent": "bone3",
					"pivot": [21, 23, 0]
				},
				{
					"name": "bone7",
					"parent": "bone2",
					"pivot": [21, 23, 0],
					"cubes": [
						{"origin": [21, 0, -7], "size": [6, 23, 14], "uv": [0, 85]}
					]
				},
				{
					"name": "bone5",
					"parent": "body",
					"pivot": [-21, 41, 0]
				},
				{
					"name": "bone4",
					"parent": "bone5",
					"pivot": [-21, 23, 0]
				},
				{
					"name": "bone6",
					"parent": "bone4",
					"pivot": [-21, 23, 0],
					"cubes": [
						{"origin": [-27, 0, -7], "size": [6, 23, 14], "uv": [0, 85], "mirror": true}
					]
				},
				{
					"name": "legs",
					"parent": "rotation",
					"pivot": [9, 14, 0]
				},
				{
					"name": "leg1",
					"parent": "legs",
					"pivot": [9, 14, 0],
					"cubes": [
						{"origin": [1, 0, -9], "size": [18, 14, 18], "uv": [58, 85], "mirror": true}
					]
				},
				{
					"name": "leg2",
					"parent": "legs",
					"pivot": [-9, 14, 0],
					"cubes": [
						{"origin": [-19, 0, -9], "size": [18, 14, 18], "uv": [58, 85]}
					]
				}
			]
		}
	]
}